{
    "device" : {
        "make" : "Apple",
        "os" : "iOS",
        "devicetype" : 1,
        "model" : "iPhone",
        "ifa" : "D617DE34-37A6-499E-BF02-734B95C8631D",
        "language" : "en",
        "osv" : "12.100000",
        "connectiontype" : 3,
        "dnt" : 0,
        "js" : 1
    },
    "test" : 1,
    "id" : "a91e54caf4ae7dcf7a1f13640fa21079",
    "imp" : [
        {
            "tagid" : "a91e54caf4ae7dcf7a1f13640fa21079",
            "secure" : 1,
            "banner" : {
                "btype" : [
                    2
                ],
                "h" : 50,
                "ext" : {
                    "atype" : 1,
                    "zoneid" : 26032
                },
                "battr" : [
                    14
                ],
                "w" : 320,
                "pos" : 1
            },
            "id" : "1",
            "bidfloorcur" : "KRW",
            "bidfloor" : 0,
            "instl" : 1
        }
    ],
    "app" : {
        "id" : "a91e54caf4ae7dcf7a1f13640fa21079",
        "bundle" : "com.adop.BidmadSDKTest",
        "name" : "BidmadSDKTest",
        "publisher" : {
            "cat" : [
                "IAB15",
                "IAB15-10"
            ],
            "id" : "a91e54caf4ae7dcf7a1f13640fa21079",
            "ext" : {
                "clientid" : 26032
            },
            "name" : "adop",
            "domain" : "adop.cc"
        },
        "ver" : "1.0.1"
    },
    "ext" : {
        "location_signature" : "feff819cdc9f9d70619211e55f1b0096",
        "click_url" : "http://adop.cc/click?url={CLICK_URL_ESC}",
        "impr_url" : "http://adop.cc/impr?url={AUCTION_ID}",
        "price_type" : 2,
        "request_time" : "1554373496"
    },
    "bcate" : [
        "IAB25",
        "IAB7-39",
        "IAB8-18",
        "IAB8-5",
        "IAB9-9"
    ],
    "at" : 0,
    "user" : {
        
    }
}
